Prompt	Wording
0	0__
1	1__
2	2__
3	3__
4	4__
5	5__
6	6__
7	7__
8	8__
9	9__
10	10__
11	11__
12	12__
13	13__
14	14__
15	15__
16	16__
17	17__
18	18__
19	19__
20	20__
21	21__
22	22__
23	23__
24	24__
25	25__
26	26__
27	27__
28	28__
29	29__
30	30__
31	31__
32	32__
33	33__
34	34__
35	35__
36	36__
37	37__
38	38__
39	39__
40	40__
41	41__
42	42__
43	43__
44	44__
45	45__
46	46__
47	47__
48	48__
49	49__
50	50__
51	51__
52	52__
53	53__
54	54__
55	55__
56	56__
57	57__
58	58__
59	59__
60	60__
61	61__
62	62__
63	63__
64	64__
65	65__
66	66__
67	67__
68	68__
69	69__
70	70__
71	71__
72	72__
73	73__
74	74__
75	75__
76	76__
77	77__
78	78__
79	79__
80	80__
81	81__
82	82__
83	83__
84	84__
85	85__
86	86__
87	87__
88	88__
89	89__
90	90__
91	91__
92	92__
93	93__
94	94__
95	95__
96	96__
97	97__
98	98__
99	99__
100	100__
200	200__
300	300__
400	400__
500	500__
600	600__
700	700__
800	800__
900	900__
1000	1000__
2000	2000__
3000	3000__
4000	4000__
5000	5000__
6000	6000__
7000	7000__
8000	8000__
9000	9000__
10th	10th__
11th	11th__
12th	12th__
13th	13th__
14th	14th__
15th	15th__
16th	16th__
17th	17th__
18th	18th__
19th	19th__
1st	1st__
20th	20th__
21th	21th__
22nd	22nd__
23rd	23rd__
24th	24th__
25th	25th__
26th	26th__
27th	27th__
28th	28th__
29th	29th__
2nd	2nd__
30th	30th__
31st	31st__
3rd	3rd__
4th	4th__
5th	5th__
6th	6th__
7th	7th__
8th	8th__
9th	9th__
alabama	Alabama__
alaska	Alaska__
alberta	Alberta__
am	AM__
american_samoa	American Samoa__
and	and__
April	April__
arizona	Arizona__
arkansas	Arkansas__
August	August__
billion	billion__
british_columbia	British Columbia__
california	California__
cent	cent__
cents	cent__
colorado	Colorado__
connecticut	Connecticut__
December	December__
delaware	Delaware__
district_of_columbia	DC__
dollar	dollar__
dollars	dollar__
February	February__
federated_states_of_micronesia	federated_states_of_micronesia__
florida	Florida__
georgia	Georgia__
guam	Guam__
hawaii	Hawaii__
hour	hour__
hours	hours__
hundred	hundred__
idaho	Idaho__
illinois	Illinois__
indiana	Indiana__
iowa	Iowa__
January	January__
July	July__
June	June__
kansas	Kansas__
kentucky	Kentucky__
louisiana	Louisiana__
maine	Maine__
manitoba	Manitoba__
March	March__
marshall_islands	Marshall Islands__
maryland	Maryland__
massachusetts	Massachusetts__
May	May__
michigan	Michigan__
midnight	midnight__
million	million__
minnesota	Minnesota__
minute	minute__
minutes	minutes__
mississippi	Mississippi__
missouri	Missouri__
montana	Montana__
nebraska	Nebraska__
negative	negative__
nevada	Nevada__
new_brunswick	New Brunswick__
new_hampshire	New Hampshire__
new_jersey	New Jersey__
new_mexico	New Mexico__
newfoundland	Newfoundland__
noon	noon__
northern_mariana_islands	Northern Mariana Islands__
northwest_territories	Northwest Territories__
nova_scotia	Nova Scotia__
November	November__
nunavut	nunavut__
October	October__
oh	oh__
oklahoma	Oklahoma__
ontario	Ontario__
oregon	Oregon__
palau	Palau__
pennsylvania	Pennsylvania__
pm	PM__
point	point__
prince_edward	Prince Edward__
puerto_rico	Puerto Rico__
quebec	Quebec__
rhode_island	Rhode_island__
sasketchewan	Sasketchewan__
second	second__
seconds	seconds__
September	September__
silence	__
Silence_25ms	__
south_carolina	South Carolina__
south_dakota	South Dakota__
tennessee	Tennessee__
texas	Texas__
thousand	thousand___
trillion	trillion___
us_virgin_islands	US Virgin Islands__
utah	Utah__
vermont	Vermont__
virginia	Virginia__
washington	Washington__
west_virginia	West Virginia__
wisconsin	Wisconsin__
wyoming	Yyoming__
yukon	Yukon__
