Top Tag Confusion


,,5
PrecertGeneral,PrecertDental,2
CoverageChiropractor,CoverageMedicalGeneral,2
PrecertGeneral,FindProviderInNetwork,1
CoverageAnnualExam,PaymentGeneral,1
CoverageBirthControl,CoverageGeneral,1
PrecertProcedure,CoverageMedicalSpecific,1
PrecertGeneral,CertificateOfCoverage,1
AddressClaim,FaxNumberGeneral,1
PrecertGeneral,CoverageGeneral,1



Top Word Confusionsa,12
to,9
i,8
for,6
of,5
if,5
have,4
question,4
covered,4
cigna,4
