Phrases,SemTag,Count
billing address,AddressClaim,1
billing i need an address,AddressClaim,1
i have a question where to send a bill to or fax a bill to,AddressClaim,1
i have an invoice where do i mail it,AddressClaim,1
i need address for cigna to send an an a bill,AddressClaim,1
i need an address to mail a bill to,AddressClaim,1
i need cigna's billing address,AddressClaim,1
i need the address to send a bill to,AddressClaim,1
what is the billing address,AddressClaim,1
address for claim,AddressClaim,1
address for claim form,AddressClaim,1
address for claim submission,AddressClaim,1
address for claims,AddressClaim,1
address for filing claims,AddressClaim,1
address for sending new claim,AddressClaim,1
address for to file a claim,AddressClaim,1
address to file claim,AddressClaim,1
address to submit claims,AddressClaim,1
address where to send claim,AddressClaim,1
claim claim mailing address,AddressClaim,1
claim submission address,AddressClaim,1
file claim need a claim address,AddressClaim,1
i need an address to process a claim,AddressClaim,1
i need your billing and claims address,AddressClaim,1
mailing address claim,AddressClaim,1
mailing address for claim form,AddressClaim,1
mailing address for claims,AddressClaim,1
mailing address for customer claims,AddressClaim,1
mailing in a claim form address,AddressClaim,1
need address for a claim letter,AddressClaim,1
need address to submit claims,AddressClaim,1
where i mail out of network claims,AddressClaim,1
where to mail a claim form,AddressClaim,1
where to send a claim,AddressClaim,1
reimbursement address,AddressClaim,1
p_o box for billing,AddressClaim,1
zip_code for billing,AddressClaim,1
how can i find where to mail medical claim form,AddressClaim,1
i need the address to send medical bills,AddressClaimMedical,1
address for medical claim,AddressClaimMedical,1
claims address medical claims address,AddressClaimMedical,1
i'm trying to find out where my psychiatrist should send billing requests,AddressClaimMH,1
i have a question about the mailing address for behavioral health claim,AddressClaimMH,1
where do i what address do i submit behavioral health claim,AddressClaimMH,1
address for dental claims,AddressClaimsDental,1
billing address for dental claim form,AddressClaimsDental,1
claims form address for dental,AddressClaimsDental,1
dental claim address,AddressClaimsDental,1
dental claim address again,AddressClaimsDental,1
i need an dental address to send claim,AddressClaimsDental,1
i need the address to submit a dental claim,AddressClaimsDental,1
mailing address for dental claim form,AddressClaimsDental,1
need the address to send a dental claim,AddressClaimsDental,1
where do i send a dental claim form to,AddressClaimsDental,1
where does the dentist send in his claim,AddressClaimsDental,1
where to send dental claim form,AddressClaimsDental,1
a dental mail in address,AddressClaimsDental,1
cigna dental mailing address,AddressClaimsDental,1
dental mailing address,AddressClaimsDental,1
mailing address for cigna dental care,AddressClaimsDental,1
i wanna find out what the correct address is of cigna dental,AddressClaimsDental,1
where to send dental,AddressClaimsDental,1
dental claim form need an address,AddressClaimsDental,1
mailing address to send a claim form dental claim form,AddressClaimsDental,1
checking on a claim,ClaimStatus,1
claim,ClaimStatus,1
claim status,ClaimStatus,1
claims,ClaimStatus,1
question about a claim,ClaimStatus,1
question on a claim,ClaimStatus,1
check on a claim,ClaimStatus,1
claim information,ClaimStatus,1
insurance claim,ClaimStatus,1
claim services,ClaimStatus,1
calling about a claim,ClaimStatus,1
claim claim status,ClaimStatus,1
details on a claim,ClaimStatus,1
status of a claim,ClaimStatus,1
claim detail,ClaimStatus,1
checking on claims,ClaimStatus,1
claim service,ClaimStatus,1
i'm calling about a claim,ClaimStatus,1
filing a claim,ClaimStatus,1
check a claim,ClaimStatus,1
submitting a claim,ClaimStatus,1
claim review,ClaimStatus,1
submit a claim,ClaimStatus,1
regarding a claim,ClaimStatus,1
claims claim status,ClaimStatus,1
i have a question on claim services,ClaimStatus,1
claim checking on a claim,ClaimStatus,1
recent claim,ClaimStatus,1
i've a question about a claim,ClaimStatus,1
question about claims,ClaimStatus,1
a claim status,ClaimStatus,1
claim coverage,ClaimStatus,1
claims status,ClaimStatus,1
discuss a claim,ClaimStatus,1
review a claim,ClaimStatus,1
help with a claim,ClaimStatus,1
out of network claim,ClaimStatus,1
follow up_on a claim,ClaimStatus,1
a question about a claim,ClaimStatus,1
billing claims,ClaimStatus,1
claim questions,ClaimStatus,1
claims department,ClaimStatus,1
question on claims,ClaimStatus,1
questions on a claim,ClaimStatus,1
checking on the claim,ClaimStatus,1
existing claim,ClaimStatus,1
outstanding claim,ClaimStatus,1
insurance claims,ClaimStatus,1
have a question on a claim,ClaimStatus,1
questioning a claim,ClaimStatus,1
i need to check on a claim,ClaimStatus,1
summary of claim,ClaimStatus,1
i have a question about claim services,ClaimStatus,1
i have a question regarding a claim,ClaimStatus,1
question regarding a claim,ClaimStatus,1
billing claim,ClaimStatus,1
information on a claim,ClaimStatus,1
claim explanation,ClaimStatus,1
a claim question,ClaimStatus,1
i have a question about claims,ClaimStatus,1
information about a claim,ClaimStatus,1
question a claim,ClaimStatus,1
claim history,ClaimStatus,1
eligibility checking on a claim,ClaimStatus,1
past claim,ClaimStatus,1
bill claim,ClaimStatus,1
claim enquiry,ClaimStatus,1
claims questions,ClaimStatus,1
claim statement,ClaimStatus,1
review claim,ClaimStatus,1
claim for services,ClaimStatus,1
checking my claim,ClaimStatus,1
claim processing,ClaimStatus,1
explanation of benefits for a claim,ClaimStatus,1
to check a claim,ClaimStatus,1
to check up_on my claims,ClaimStatus,1
to find out about claim status and the,ClaimStatus,1
to follow up a claim,ClaimStatus,1
to see if a claim has been paid,ClaimStatus,1
to see if a claim has been processed or paid,ClaimStatus,1
to see if a claim was put in,ClaimStatus,1
to see if my claim has been taken care of,ClaimStatus,1
to see when a claim will get processed,ClaimStatus,1
tracking a claim,ClaimStatus,1
trying to check on claim,ClaimStatus,1
trying to find out the status of my claim submitted,ClaimStatus,1
trying to get a claim taken care of,ClaimStatus,1
trying to see if a claim has been filed,ClaimStatus,1
update information on a claim,ClaimStatus,1
update on a claim,ClaimStatus,1
update on claim,ClaimStatus,1
verifying claim,ClaimStatus,1
wanna verify an old claim,ClaimStatus,1
want to verify a claim,ClaimStatus,1
wanting to look_up an old claim,ClaimStatus,1
was a claim processed correctly,ClaimStatus,1
was a claim submitted for my december twenty third treatment,ClaimStatus,1
we have a claim that i want to know about,ClaimStatus,1
what date date paid date claim paid,ClaimStatus,1
why waiting to find out why it's still pending his claim,ClaimStatus,1
wondering if claims are being processed,ClaimStatus,1
wondering if my claim has been processed,ClaimStatus,1
medical claim,ClaimStatusMedical,1
medical claims,ClaimStatusMedical,1
medical coverage claim,ClaimStatusMedical,1
a medical claim,ClaimStatusMedical,1
claim medical claim,ClaimStatusMedical,1
medical claim status,ClaimStatusMedical,1
medical coverage claims,ClaimStatusMedical,1
medical claim reimbursement,ClaimStatusMedical,1
medical coverage on a claim,ClaimStatusMedical,1
question about a medical claim,ClaimStatusMedical,1
status of a medical claim,ClaimStatusMedical,1
a claim a medical insurance claim,ClaimStatusMedical,1
additional information needed for a medical claim,ClaimStatusMedical,1
bill medical claim,ClaimStatusMedical,1
claim question medical claims questions,ClaimStatusMedical,1
current medical coverage on a claim on a hospitalization,ClaimStatusMedical,1
detailed information on medical claim,ClaimStatusMedical,1
doctor missing medical claim payment,ClaimStatusMedical,1
existing claim medical,ClaimStatusMedical,1
explanation of medical claims,ClaimStatusMedical,1
i need to talk about a claim medical coverage,ClaimStatusMedical,1
i'm calling about a doctor's medical claim,ClaimStatusMedical,1
medical benefits claims,ClaimStatusMedical,1
medical benefits medical claims,ClaimStatusMedical,1
medical claim copay,ClaimStatusMedical,1
medical claim coverage,ClaimStatusMedical,1
medical claim detail,ClaimStatusMedical,1
medical claim settlement,ClaimStatusMedical,1
medical claims bill,ClaimStatusMedical,1
medical claims e_o_b's,ClaimStatusMedical,1
follow up_on a medical claim,ClaimStatusMedical,1
medical claim follow up,ClaimStatusMedical,1
medical claim processed improperly,ClaimStatusMedical,1
medical claim was returned,ClaimStatusMedical,1
past medical claims,ClaimStatusMedical,1
status of medical claim,ClaimStatusMedical,1
filing medical claim,ClaimStatusMedical,1
medical claim explanation of benefits for services on an annual physical,ClaimStatusMedical,1
this is a claim for medical care already performed,ClaimStatusMedical,1
dental claim,ClaimStatusDental,1
dental claims,ClaimStatusDental,1
checking on a dental claim,ClaimStatusDental,1
orthodontic claim,ClaimStatusDental,1
checking on dental claim,ClaimStatusDental,1
dental insurance claim,ClaimStatusDental,1
i'm calling about a dental claim,ClaimStatusDental,1
question on dental claim,ClaimStatusDental,1
recent dental claim,ClaimStatusDental,1
dental claim details,ClaimStatusDental,1
dental claim problem,ClaimStatusDental,1
orthodontist claim,ClaimStatusDental,1
a claim from a dentist,ClaimStatusDental,1
a claim i filed dental claim,ClaimStatusDental,1
a dental claim for braces,ClaimStatusDental,1
a question about a dental claim,ClaimStatusDental,1
approval for a dental claim,ClaimStatusDental,1
calling to see if a dental claim has been approved,ClaimStatusDental,1
checking a dental claim,ClaimStatusDental,1
checking for submission of dental claim,ClaimStatusDental,1
checking on a claim for dental,ClaimStatusDental,1
claim question dental,ClaimStatusDental,1
claim regarding orthodontic treatment,ClaimStatusDental,1
claiming a dental,ClaimStatusDental,1
claims dental,ClaimStatusDental,1
dental benefits dental claims,ClaimStatusDental,1
dental checking on a claim,ClaimStatusDental,1
dental plan claim,ClaimStatusDental,1
dental claim payment,ClaimStatusDental,1
dental claim that was not paid,ClaimStatusDental,1
dental coverage my my dental claim,ClaimStatusDental,1
i have a question regarding a claim for a dental visit,ClaimStatusDental,1
dental insurance dental claim,ClaimStatusDental,1
dental surgery claim,ClaimStatusDental,1
i have a dental claim i need to send in,ClaimStatusDental,1
i have a i have a dentist claim,ClaimStatusDental,1
i have a question on a dental claim,ClaimStatusDental,1
i have a question on dental a dental claim,ClaimStatusDental,1
i need to check a dental claim,ClaimStatusDental,1
i need to check on a claim for dental,ClaimStatusDental,1
i'm calling about a dental claim to my insurance company,ClaimStatusDental,1
i'm calling about dental claims,ClaimStatusDental,1
i'm calling about the claims that was sent in on his dental,ClaimStatusDental,1
in reference to a dental claim,ClaimStatusDental,1
last dental claim,ClaimStatusDental,1
orthodontic claim question,ClaimStatusDental,1
payment of a dental claim,ClaimStatusDental,1
question regarding dental claim,ClaimStatusDental,1
regarding claim on dental,ClaimStatusDental,1
submitted dental claim,ClaimStatusDental,1
submitting a dental claim,ClaimStatusDental,1
to find out about a claim that my dentist filed with you,ClaimStatusDental,1
would like to know was a claim paid to the dentist,ClaimStatusDental,1
surgery approval,PrecertSurgery,1
pre_certification for surgery,PrecertSurgery,1
approval for surgery,PrecertSurgery,1
pre_approval for surgery,PrecertSurgery,1
surgery pre_approval,PrecertSurgery,1
a surgery approval,PrecertSurgery,1
approval for gallbladder surgery,PrecertSurgery,1
approval for upcoming surgery,PrecertSurgery,1
approval on a surgery,PrecertSurgery,1
approval on surgery,PrecertSurgery,1
checking on approval for surgery,PrecertSurgery,1
checking on approval of surgery,PrecertSurgery,1
i need to find the status of my surgery pre_authorization,PrecertSurgery,1
i have a question about approval of surgery,PrecertSurgery,1
surgery authorization,PrecertSurgery,1
authorization for surgery,PrecertSurgery,1
pre_authorization for surgery,PrecertSurgery,1
surgery pre_authorization,PrecertSurgery,1
authorization for outpatient surgery,PrecertSurgery,1
prior authorization for surgery,PrecertSurgery,1
authorization for surgery eye surgery,PrecertSurgery,1
i'm calling for surgery authorization,PrecertSurgery,1
i'm calling regarding authorization of a surgery,PrecertSurgery,1
presurgery service agent,PrecertSurgery,1
pre_approval for for surgery,PrecertSurgery,1
pre_approval for outpatient surgery at hospital,PrecertSurgery,1
presurgery authorization,PrecertSurgery,1
upcoming surgery authorization,PrecertSurgery,1
was a prior authorization done for surgery i have scheduled on the twenty seventh of october,PrecertSurgery,1
pre_approval for surgery testing,PrecertSurgery,1
pre_approve surgery,PrecertSurgery,1
preapproved surgery,PrecertSurgery,1
i need pre_authorization for surgery,PrecertSurgery,1
is pre_authorization necessary for my surgery,PrecertSurgery,1
pre_authorization for outpatient surgery,PrecertSurgery,1
same day surgery pre_authorization,PrecertSurgery,1
schedule surgery pre_authorization,PrecertSurgery,1
checking on a pre_certification for surgery,PrecertSurgery,1
i'm calling in_to code for to see if i need pre_cert for surgery,PrecertSurgery,1
pre_certification for a surgery,PrecertSurgery,1
pre_certification for surgery for my child,PrecertSurgery,1
pre_certification of inpatient surgery,PrecertSurgery,1
prequalification for surgery,PrecertSurgery,1
presurgery certification,PrecertSurgery,1
surgery pre_cert,PrecertSurgery,1
surgery pre_certification,PrecertSurgery,1
clearance for surgery,PrecertSurgery,1
okay for serve for surgery surgical permission,PrecertSurgery,1
surgery certification,PrecertSurgery,1
calling to make sure i have been pre registered for surgery,PrecertSurgery,1
checking on preauth surgery,PrecertSurgery,1
getting getting surgery approved,PrecertSurgery,1
pre_clearance surgery,PrecertSurgery,1
preregister for surgery,PrecertSurgery,1
preregistration for surgery,PrecertSurgery,1
presurgery request,PrecertSurgery,1
approval for a cat scan,PrecertCTScan,1
approval for c_t head scan,PrecertCTScan,1
c_t scan approval,PrecertCTScan,1
cat scan approval,PrecertCTScan,1
i'm calling in regards to approval for a cat scan,PrecertCTScan,1
cat scan authorization,PrecertCTScan,1
authorization for cat scan,PrecertCTScan,1
authorization for a c_t,PrecertCTScan,1
authorization for a c_t scan,PrecertCTScan,1
checking on a cat scan authorization,PrecertCTScan,1
need prior authorization for a cat scan,PrecertCTScan,1
wanted to check on authorization for a cat scan,PrecertCTScan,1
i need to know if i have a pre_authorization for a cat scan,PrecertCTScan,1
pre_authorization for cat scan,PrecertCTScan,1
pre_authorized a c_t scan,PrecertCTScan,1
to get a cat scan preapproved,PrecertCTScan,1
checking for pre_certification for c_t,PrecertCTScan,1
for pre_certification for a cat scan,PrecertCTScan,1
getting a cat scan pre_certify,PrecertCTScan,1
pre_cert number for a cat scan,PrecertCTScan,1
pre_certification for a cat scan,PrecertCTScan,1
pre_certification for c_t scan,PrecertCTScan,1
checking on a referral for cat scan,PrecertCTScan,1
dental estimate,PrecertDental,1
dental pre_authorization,PrecertDental,1
treatment plan,PrecertDental,1
dental pre_treatment,PrecertDental,1
pre_treatment request,PrecertDental,1
approval for a crown for a tooth,PrecertDental,1
approval for dentist,PrecertDental,1
approval for upper denture,PrecertDental,1
approval to use a dentist,PrecertDental,1
approval to use new dentist,PrecertDental,1
dental approval,PrecertDental,1
do i need a prior approval for crown,PrecertDental,1
extraction approval,PrecertDental,1
i need an approval for tooth,PrecertDental,1
i'm looking for to see if i need approval for my dental work,PrecertDental,1
insurance approval for my dentist from you to get some dental work done,PrecertDental,1
need an approval for crown for his tooth,PrecertDental,1
post and crown approval,PrecertDental,1
root canal approval,PrecertDental,1
trying to find out if i'm approved for dental work dental work approval,PrecertDental,1
waiting for an approval for a crown,PrecertDental,1
wisdom teeth approval,PrecertDental,1
dental coverage pre estimate,PrecertDental,1
have a question about my dental coverage pre estimate,PrecertDental,1
pre_treatment request i think the percent of the plan covered is incorrect should be eighty five and he is only getting at sixty percent,PrecertDental,1
approval for dental full mouth x_ray,PrecertDental,1
a pre_treatment request,PrecertDental,1
checking on a pre_treatment request,PrecertDental,1
checking to see if the dentist has sent in any report in_to see if we can get work done on paul's teeth,PrecertDental,1
dental pre_treatment request,PrecertDental,1
pre_treatment,PrecertDental,1
pre_treatment plan for dental work,PrecertDental,1
i need to see a dentist as an emergency i need authorization please,PrecertDental,1
to find out about my request for denture,PrecertDental,1
get pre_approval for dental work,PrecertDental,1
authorization for dental work,PrecertDental,1
dental authorization,PrecertDental,1
follow up_on authorization from dentist,PrecertDental,1
looking to see if dentist got pre_approval,PrecertDental,1
pre_authorization dental,PrecertDental,1
pre_authorization for dental work,PrecertDental,1
pre_authorization for general anesthesia for a dental wisdom teeth extraction,PrecertDental,1
pre_authorization oral surgeon,PrecertDental,1
pre_authorization pre_authorization pre_authorization dental,PrecertDental,1
dental predetermination,PrecertDental,1
authorization for colonoscopy,PrecertColonoscopy,1
do i need an authorization for colonoscopy,PrecertColonoscopy,1
i need information on authorization for a colonoscopy,PrecertColonoscopy,1
i'm calling about getting authorized for a colonoscopy and e g d,PrecertColonoscopy,1
do i need prior authorization for a colonoscopy,PrecertColonoscopy,1
approval for colonoscopy,PrecertColonoscopy,1
approval for outpatient procedure colonoscopy,PrecertColonoscopy,1
i'm having a colonoscopy on thursday do i need approval from you,PrecertColonoscopy,1
colonoscopy pre_approval,PrecertColonoscopy,1
pre_certify for a colonoscopy,PrecertColonoscopy,1
approval,PrecertGeneral,1
authorization,PrecertGeneral,1
pre_authorization,PrecertGeneral,1
pre_certification,PrecertGeneral,1
approvals,PrecertGeneral,1
prior authorization,PrecertGeneral,1
pre_approval,PrecertGeneral,1
predetermination,PrecertGeneral,1
pre_cert,PrecertGeneral,1
approval approval,PrecertGeneral,1
pre_certify,PrecertGeneral,1
authorizations,PrecertGeneral,1
certification,PrecertGeneral,1
doctor approval,PrecertGeneral,1
an authorization,PrecertGeneral,1
prior auth,PrecertGeneral,1
prior approval,PrecertGeneral,1
checking on pre_certification,PrecertGeneral,1
predetermination of benefits,PrecertGeneral,1
pre_authorization department,PrecertGeneral,1
prequalification,PrecertGeneral,1
a approval,PrecertGeneral,1
approval for service,PrecertGeneral,1
i need approval,PrecertGeneral,1
authorization department,PrecertGeneral,1
authorization question,PrecertGeneral,1
need authorization,PrecertGeneral,1
i have a question on pre_authorization,PrecertGeneral,1
pre_authorization question,PrecertGeneral,1
pre_certification question,PrecertGeneral,1
prequalify,PrecertGeneral,1
approval code,PrecertGeneral,1
approvals approvals,PrecertGeneral,1
insurance approvals,PrecertGeneral,1
pre_authorization approval,PrecertGeneral,1
prior authorization form,PrecertGeneral,1
pre_approval pre_approval,PrecertGeneral,1
authorization authorization,PrecertGeneral,1
i authorization,PrecertGeneral,1
i need authorization,PrecertGeneral,1
insurance authorization,PrecertGeneral,1
a pre_authorization,PrecertGeneral,1
i have a question about pre_authorization,PrecertGeneral,1
pre_admission,PrecertGeneral,1
pre_admission certification,PrecertGeneral,1
precertifications,PrecertGeneral,1
predetermined,PrecertGeneral,1
question on pre_certification,PrecertGeneral,1
approval for a office visit,PrecertGeneral,1
approval for a physician,PrecertGeneral,1
approval for care,PrecertGeneral,1
approval for doctor,PrecertGeneral,1
approval for early annual appointment,PrecertGeneral,1
approval for out of network docotor,PrecertGeneral,1
approval is for one day,PrecertGeneral,1
approval of a doctor,PrecertGeneral,1
approval of services,PrecertGeneral,1
approval of treatment,PrecertGeneral,1
approval on a service,PrecertGeneral,1
approval on prices,PrecertGeneral,1
approvals department,PrecertGeneral,1
approvals i need an approval from from cigna,PrecertGeneral,1
benefit approval,PrecertGeneral,1
doctor approval in network,PrecertGeneral,1
doctors approval under plan,PrecertGeneral,1
get approval,PrecertGeneral,1
request approval of follow up,PrecertGeneral,1
special approval,PrecertGeneral,1
checking on an authorization requirement,PrecertGeneral,1
a pre verification,PrecertGeneral,1
ambulance authorization to go to rehab,PrecertGeneral,1
authorization book out of network benefit,PrecertGeneral,1
authorization book out of network benefits,PrecertGeneral,1
authorization to be seen by a physician,PrecertGeneral,1
authorizations department,PrecertGeneral,1
authorize coverage,PrecertGeneral,1
how long does the pre_treatment estimate last,PrecertDentalProblem,1
pre admitting authorization,PrecertGeneral,1
i need authorization to see a physician out of network,PrecertGeneral,1
i wanna make sure that i have authorization to have follow up appointments with the surgeon that operated on me,PrecertGeneral,1
a pre_approval,PrecertGeneral,1
approval or pre_authorization,PrecertGeneral,1
do i need pre_approval,PrecertGeneral,1
getting pre_approval for a women's health check tomorrow,PrecertGeneral,1
i need to know if something needs pre_approval,PrecertGeneral,1
outpatient pre_approval,PrecertGeneral,1
pre_approval for a doctor,PrecertGeneral,1
pre_approval requirements,PrecertGeneral,1
preapproved,PrecertGeneral,1
manage care authorization,PrecertGeneral,1
pre_authorize out of network doctor,PrecertGeneral,1
question on prior authorization,PrecertGeneral,1
check if pre_authorization is necessary,PrecertGeneral,1
have a question on a prior authorization,PrecertGeneral,1
i need to confirm pre_authorization of treatment,PrecertGeneral,1
i need to find out what happens with a pre_authorization form,PrecertGeneral,1
looking to see if pre_authorization is necessary,PrecertGeneral,1
need a prior authorization,PrecertGeneral,1
pre_authorization out of network,PrecertGeneral,1
pre_authorized dollar amount for carol,PrecertGeneral,1
preauth patient,PrecertGeneral,1
prior authorization for services rendered,PrecertGeneral,1
prior authorization notice,PrecertGeneral,1
question about pre_authorized treatment,PrecertGeneral,1
seeing if pre_authorization is necessary,PrecertGeneral,1
pre eligibility,PrecertGeneral,1
a predetermination,PrecertGeneral,1
check for pre_cert,PrecertGeneral,1
check pre_certify,PrecertGeneral,1
checking to see if you'll pre_certify,PrecertGeneral,1
i need to know about a pre_cert,PrecertGeneral,1
i'm calling about prequalification,PrecertGeneral,1
information on whether i need to pre_cert a service,PrecertGeneral,1
insurance pre_certification,PrecertGeneral,1
it's about a pre_cert,PrecertGeneral,1
pre_certification for durable equipment,PrecertGeneral,1
pre_cert for an office visit,PrecertGeneral,1
predetermination pre_certification,PrecertGeneral,1
predeterminations,PrecertGeneral,1
predetermined payment,PrecertGeneral,1
resolve of the predetermination,PrecertGeneral,1
pre_treatment code,PrecertGeneral,1
precertified service,PrecertGeneral,1
approval for procedure,PrecertProcedure,1
procedure approval,PrecertProcedure,1
approval for a procedure,PrecertProcedure,1
pre_approval for procedure,PrecertProcedure,1
pre_approval for a procedure,PrecertProcedure,1
a procedure approval,PrecertProcedure,1
approval for medical procedure,PrecertProcedure,1
check approval for a procedure,PrecertProcedure,1
checking on approval for a coverage for a procedure,PrecertProcedure,1
checking on eligibility or approval for procedure on monday,PrecertProcedure,1
checking to see s if a procedures been accepted,PrecertProcedure,1
i need a procedure approved,PrecertProcedure,1
i need to see if a procedure has been approved,PrecertProcedure,1
i need to try to get this procedure approved,PrecertProcedure,1
i'm calling to see if i have approval for a procedure,PrecertProcedure,1
i'm checking on supposed to have a procedure done i need to see to be approved or not approved,PrecertProcedure,1
authorization for a procedure,PrecertProcedure,1
question on approved procedure,PrecertProcedure,1
procedure authorization,PrecertProcedure,1
pre_authorization for procedure,PrecertProcedure,1
cryo authorization,PrecertProcedure,1
i need to discuss a test that we sent some information for i want to know what the status of it is,PrecertProcedure,1
pre_validation of a procedure,PrecertProcedure,1
prenotification for a procedure,PrecertProcedure,1
pre_approval for medical procedure,PrecertProcedure,1
need to know if i need pre_approval to get a vasectomy,PrecertProcedure,1
pre_approval for a vasectomy,PrecertProcedure,1
prior approval on a procedure,PrecertProcedure,1
checking on pre_authorization of a outpatient procedure,PrecertProcedure,1
i need to pre authorize a procedure,PrecertProcedure,1
pre_authorization for a procedure,PrecertProcedure,1
see if a procedure needs pre_authorization,PrecertProcedure,1
certification for a procedure,PrecertProcedure,1
finding out if i need pre_certification for a procedure,PrecertProcedure,1
i i need prior authorization predetermination on a procedure,PrecertProcedure,1
i need pre_certification for a procedure,PrecertProcedure,1
i'm calling for for pre_certification for a procedure,PrecertProcedure,1
i'm checking to see what outpatient procedures need to be called in or precertified,PrecertProcedure,1
outpatient procedure pre_certification,PrecertProcedure,1
approval for hospital,PrecertHospital,1
hospital approval,PrecertHospital,1
pre_authorization for hospital admission,PrecertHospital,1
hospital pre_approval,PrecertHospital,1
hospital pre_certification,PrecertHospital,1
hospital admission pre_certification,PrecertHospital,1
on pre_certification or i'm calling about admission in_to the hospital,PrecertHospital,1
pre_certify for inpatient hospital,PrecertHospital,1
pre_certification for the hospital,PrecertHospital,1
doctor hospital approval,PrecertHospital,1
i need inpatient admission on pre_certification,PrecertHospital,1
inpatient pre_certification,PrecertHospital,1
a p_a_p authorization,PrecertTest,1
allergy testing,CoverageAllergist,1
allergy coverage,CoverageAllergist,1
allergy test,CoverageAllergist,1
allergy treatment,CoverageAllergist,1
i want to know if allergy testing is covered under my insurance,CoverageAllergist,1
medical coverage for allergy,CoverageAllergist,1
want to know whether or not you cover allergy testing,CoverageAllergist,1
allergy shots,CoverageAllergist,1
coverage for allergy shots,CoverageAllergist,1
i need to know the coverage for allergy shots,CoverageAllergist,1
i want to know if my allergy injections will be covered,CoverageAllergist,1
acupuncture,CoverageAcupuncture,1
acupuncture benefit,CoverageAcupuncture,1
acupuncture coverage,CoverageAcupuncture,1
acupuncture coverage coverage,CoverageAcupuncture,1
acupuncture services,CoverageAcupuncture,1
am i covered for acupuncture,CoverageAcupuncture,1
check acupuncture,CoverageAcupuncture,1
checking on acupuncture coverage,CoverageAcupuncture,1
checking to see if insurance cover acupuncture,CoverageAcupuncture,1
does cigna cover acupuncture and copay,CoverageAcupuncture,1
does does does my insurance apply for acupuncture services,CoverageAcupuncture,1
does my insurance cover acupuncture,CoverageAcupuncture,1
eligibility acupuncture,CoverageAcupuncture,1
eligibility for acupuncture,CoverageAcupuncture,1
enquiry regarding acupuncture,CoverageAcupuncture,1
i need to check and see if acupuncture is covered on my policy,CoverageAcupuncture,1
i wanna know if acupuncture is covered,CoverageAcupuncture,1
i wanna know if acupuncture is covered through insurance,CoverageAcupuncture,1
i wanna know if they cover acupuncture,CoverageAcupuncture,1
i'm calling to see if cigna covers acupuncture,CoverageAcupuncture,1
i'm interested to see if acupuncture is something that is covered under my policy,CoverageAcupuncture,1
i'm trying to see if i'm covered for acupuncture,CoverageAcupuncture,1
is acupuncture a covered service,CoverageAcupuncture,1
is acupuncture covered,CoverageAcupuncture,1
is acupuncture covered under my plan,CoverageAcupuncture,1
medical coverage acupuncture,CoverageAcupuncture,1
medical coverage for acupuncture,CoverageAcupuncture,1
medical coverage is acupuncture is covered,CoverageAcupuncture,1
medical medical coverage for acupuncture,CoverageAcupuncture,1
acupuncture payment,CoverageAcupuncture,1
benefits air ambulance benefit,CoverageAmbulance,1
transportation,CoverageAmbulance,1
ambulance coverage,CoverageAmbulance,1
ambulance,CoverageAmbulance,1
ambulance ride on september fifth two thousand twelve,CoverageAmbulance,1
ambulance service,CoverageAmbulance,1
ambulance the ride,CoverageAmbulance,1
ambulance transportation,CoverageAmbulance,1
does my policy handle emergency evacuation,CoverageAmbulance,1
emergency ambulance service on ten thirty one twelve,CoverageAmbulance,1
i have a question on nine one one ambulance,CoverageAmbulance,1
plan coverage for ambulance,CoverageAmbulance,1
rural metro ambulance,CoverageAmbulance,1
ambulance service on ten thirty one twelve,CoverageAmbulance,1
transport service,CoverageAmbulance,1
physical,CoverageAnnualExam,1
annual physical,CoverageAnnualExam,1
annual check_up,CoverageAnnualExam,1
yearly physical,CoverageAnnualExam,1
physicals,CoverageAnnualExam,1
physical check_up,CoverageAnnualExam,1
physical examination,CoverageAnnualExam,1
sports physical,CoverageAnnualExam,1
annual physical coverage,CoverageAnnualExam,1
coverage for annual physical,CoverageAnnualExam,1
eligibility for physical,CoverageAnnualExam,1
physical exam,CoverageAnnualExam,1
physical appointments,CoverageAnnualExam,1
a annual visit what is covered,CoverageAnnualExam,1
annual check_up coverage,CoverageAnnualExam,1
annual exam,CoverageAnnualExam,1
annual physical check,CoverageAnnualExam,1
annual visits,CoverageAnnualExam,1
benefits for a annual physical,CoverageAnnualExam,1
coverage for physical,CoverageAnnualExam,1
eligibility for annual health care check,CoverageAnnualExam,1
her wanna know about getting a physical,CoverageAnnualExam,1
i'm checking if they if cigna pays for physical,CoverageAnnualExam,1
is a physical covered per calendar year,CoverageAnnualExam,1
looking for eligibility for annual health check,CoverageAnnualExam,1
my i was treated for my annual check_up and on the,CoverageAnnualExam,1
physical eligibility,CoverageAnnualExam,1
physicals health physicals,CoverageAnnualExam,1
question about yearly exam,CoverageAnnualExam,1
regular check_up,CoverageAnnualExam,1
routine annual physical exam,CoverageAnnualExam,1
annual exam benefit,CoverageAnnualExam,1
is an annual exam covered,CoverageAnnualExam,1
copay for physical,CoverageAnnualExam,1
copay on a physical,CoverageAnnualExam,1
annual visit medical coverage,CoverageAnnualExam,1
preventative health care exam,CoverageAnnualExam,1
breast pump coverage,CoverageBreastPump,1
breast pump obamacare,CoverageBreastPump,1
coverage for a best breast pump,CoverageBreastPump,1
coverage for a breast pump,CoverageBreastPump,1
coverage for breast pump,CoverageBreastPump,1
eligibility for a breast pump,CoverageBreastPump,1
free breast pump,CoverageBreastPump,1
i have a question on breast pump coverage,CoverageBreastPump,1
i need a breast pump,CoverageBreastPump,1
i need to buy a breast pump with my insurance,CoverageBreastPump,1
i need to find out about getting a breast pump,CoverageBreastPump,1
i need to get a breast pump,CoverageBreastPump,1
i need to order a breast pump,CoverageBreastPump,1
i received a breast pump and i don't know how much it's gonna cost me,CoverageBreastPump,1
i want to see if breast pump is covered under health insurance,CoverageBreastPump,1
i'm calling for a pfizer breast pump,CoverageBreastPump,1
i'm calling to see what kind breast pump my wife is available for eligible for,CoverageBreastPump,1
insurance covered breast pump,CoverageBreastPump,1
medical coverage of breast pump,CoverageBreastPump,1
question about breast pump benefit,CoverageBreastPump,1
will cigna provided will cigna pay for a breast pump,CoverageBreastPump,1
chiropractic care,CoverageChiropractor,1
chiropractic,CoverageChiropractor,1
chiropractic benefits,CoverageChiropractor,1
chiropractic coverage,CoverageChiropractor,1
chiropractic services,CoverageChiropractor,1
chiropractor coverage,CoverageChiropractor,1
medical coverage for chiropractor,CoverageChiropractor,1
chiropractor benefits,CoverageChiropractor,1
chiropractic copay,CoverageChiropractor,1
chiropractic benefit,CoverageChiropractor,1
chiropractor services,CoverageChiropractor,1
chiropractic benefits dental,CoverageChiropractor,1
copay for chiropractic,CoverageChiropractor,1
find out how much my copay is to a chiropractor,CoverageChiropractor,1
how much copay for chiropractor,CoverageChiropractor,1
i would like to find out what it costs to visit a chiropractor,CoverageChiropractor,1
i need to see a specialist like a chiropractor wonder what this covers,CoverageChiropractor,1
am i qualified for chiropractic care,CoverageChiropractor,1
checking on chiropractic coverage,CoverageChiropractor,1
checking on chiropractor services,CoverageChiropractor,1
checking on coverage for a chiropractor,CoverageChiropractor,1
checking on coverage for chiropractor,CoverageChiropractor,1
checking to see if chiropractic care is eligible,CoverageChiropractor,1
chiropractic benefits on my insurance,CoverageChiropractor,1
chiropractic care first visit,CoverageChiropractor,1
chiropractic insurance,CoverageChiropractor,1
chiropractic massage therapy,CoverageChiropractor,1
chiropractic treatment,CoverageChiropractor,1
chiropractic visit,CoverageChiropractor,1
chiropractor service,CoverageChiropractor,1
coverage for chiropractic and physical therapy,CoverageChiropractor,1
covered for chiropractic,CoverageChiropractor,1
do you cover does my policy cover chiropractic services,CoverageChiropractor,1
eligibility chiropractor and physical therapy,CoverageChiropractor,1
eligibility for chiropractic care,CoverageChiropractor,1
eligibility for chiropractic services,CoverageChiropractor,1
find chiropractic coverage,CoverageChiropractor,1
i have a question on covered services for chiropractic,CoverageChiropractor,1
i want to know if i have chiropractic coverage,CoverageChiropractor,1
i want to know what cigna is paying on my chiropractic visits,CoverageChiropractor,1
i'm calling to find out if chiropractic care is included in my insurance,CoverageChiropractor,1
inquiring about chiropractor service,CoverageChiropractor,1
limit on chiropractic care for a year,CoverageChiropractor,1
looking to find if a chiropractor is covered under my insurance,CoverageChiropractor,1
medical coverage chiropractor,CoverageChiropractor,1
medical coverage for chiropractic care,CoverageChiropractor,1
my chiropractor benefits,CoverageChiropractor,1
out of network coverage for chiropractic treatment,CoverageChiropractor,1
whether my chiropractor is covered,CoverageChiropractor,1
chiropractor visits,CoverageChiropractor,1
eligibility benefit for diabetes clinics,CoverageDiabetesSupplies,1
checking on the insurance coverage for diabetic supplies,CoverageDiabetesSupplies,1
diabetic equipment,CoverageDiabetesSupplies,1
i need to know what insurance will pay for for insulin,CoverageDiabetesSupplies,1
i'm diabetic and i need to find out if you guys cover diabetic shoes,CoverageDiabetesSupplies,1
i have a question on insulin pump coverage,CoverageDiabetesSupplies,1
question about coverage for diabetic test strips,CoverageDiabetesSupplies,1
to see what my coverage would be for a new insulin pump,CoverageDiabetesSupplies,1
diabetic supply coverage,CoverageDiabetesSupplies,1
insulin shots,CoverageDiabetesSupplies,1
a new diabetic meter,CoverageDiabetesSupplies,1
a question about test strips,CoverageDiabetesSupplies,1
acceptable test strip,CoverageDiabetesSupplies,1
acceptable test strips,CoverageDiabetesSupplies,1
accu check machine,CoverageDiabetesSupplies,1
blood glucose meter,CoverageDiabetesSupplies,1
blood sugar monitor,CoverageDiabetesSupplies,1
checking on_to see if an insulin pump was ordered,CoverageDiabetesSupplies,1
coverage for diabetic test strips,CoverageDiabetesSupplies,1
diabetes shoes,CoverageDiabetesSupplies,1
diabetes supplies,CoverageDiabetesSupplies,1
diabetes test strips,CoverageDiabetesSupplies,1
diabetes tester blood,CoverageDiabetesSupplies,1
diabetic medication program,CoverageDiabetesSupplies,1
diabetic shoes,CoverageDiabetesSupplies,1
diabetic supplies,CoverageDiabetesSupplies,1
diabetic test monitor thing whatever you call it i need the test strips,CoverageDiabetesSupplies,1
diabetic test strips,CoverageDiabetesSupplies,1
diabetic testing supplies,CoverageDiabetesSupplies,1
eligibility for a diabetic test meter,CoverageDiabetesSupplies,1
eligibility for diabetic supplies,CoverageDiabetesSupplies,1
eligibility for insulin pump,CoverageDiabetesSupplies,1
free glucose meter,CoverageDiabetesSupplies,1
gestational diabetes supplies,CoverageDiabetesSupplies,1
get a new diabetes blood glucose tester,CoverageDiabetesSupplies,1
glucose monitor,CoverageDiabetesSupplies,1
glucose monitors strips are covered,CoverageDiabetesSupplies,1
i need an accu chek aviva meter,CoverageDiabetesSupplies,1
i need i need to know how to get my needles for my insulin pen,CoverageDiabetesSupplies,1
i needed to find out if test strips and a diabetes reader is covered by our insurance,CoverageDiabetesSupplies,1
i want to know if my insurance covers glucometers,CoverageDiabetesSupplies,1
i want to see about getting a new diabetic one touch machine,CoverageDiabetesSupplies,1
i'm calling about an insulin monitor,CoverageDiabetesSupplies,1
i'm calling about i'm calling about some shoes diabetes shoes i ordered and they saying that they don't know if cigna's going to pay for it or not,CoverageDiabetesSupplies,1
i'm wondering about a glucose tolerance meter,CoverageDiabetesSupplies,1
insulin,CoverageDiabetesSupplies,1
insulin pump,CoverageDiabetesSupplies,1
insulin pump supplies,CoverageDiabetesSupplies,1
is my diabetic test strips fall under d_m_e coverage,CoverageDiabetesSupplies,1
medical coverage for diabetic supplies,CoverageDiabetesSupplies,1
medical coverage i need a sugar meter,CoverageDiabetesSupplies,1
need a new glucose meter,CoverageDiabetesSupplies,1
need diabetic meter,CoverageDiabetesSupplies,1
okay i'm a diabetic and i was just wondering i heard that diabetic supplies are free i am not sure about this i already have some i paid two hundred and seventy_nine dollars and thirty cents for it i don't know if that's the full amount or if that,CoverageDiabetesSupplies,1
strips,CoverageDiabetesSupplies,1
test strips,CoverageDiabetesSupplies,1
prescription coverage on diabetes test strips,CoverageDiabetesSupplies,1
glucose tester sugar tester diabetes tester can i talk to someone,CoverageDiabetesSupplies,1
payment for diabetic supplies,CoverageDiabetesSupplies,1
will our prescription coverage cover diabetic testing strips,CoverageDiabetesSupplies,1
my insulin prescription,CoverageDiabetesSupplies,1
e_r copayment,CoverageER,1
cost of emergency room,CoverageER,1
how much would it cost to go to emergency room,CoverageER,1
question about coverage for an e_r visit,CoverageER,1
emergency hospital,CoverageER,1
to hospital emergency hospital,CoverageER,1
emergency coverage,CoverageER,1
emergency room insurance coverage,CoverageER,1
i have a question about emergency room coverage,CoverageER,1
i have a question on covered services for a minor medical emergency,CoverageER,1
eligibility for emergency care,CoverageER,1
emergency care out of network,CoverageER,1
emergency room benefits,CoverageER,1
emergency room coverage,CoverageER,1
emergency room service,CoverageER,1
emergency service,CoverageER,1
emergency services,CoverageER,1
how much for emergency room visit,CoverageER,1
is emergency room covered,CoverageER,1
medical coverage hospital e_r,CoverageER,1
medical coverage i had an e_r visit,CoverageER,1
question on emergency services,CoverageER,1
birth control coverage,CoverageBirthControl,1
birth control for half a year because studying abroad,CoverageBirthControl,1
birth control options that are covered,CoverageBirthControl,1
birth control pills,CoverageBirthControl,1
birth control prescription,CoverageBirthControl,1
contraception,CoverageBirthControl,1
i have a question to find out how much is covered for birth control,CoverageBirthControl,1
contraception coverage,CoverageBirthControl,1
contraceptive,CoverageBirthControl,1
contraceptive coverage,CoverageBirthControl,1
contraceptive plan,CoverageBirthControl,1
contraceptive services,CoverageBirthControl,1
coverage for birth control,CoverageBirthControl,1
coverage for contraceptive devices,CoverageBirthControl,1
i need to find out how much is my insurance is going to check is going to cover my birth control,CoverageBirthControl,1
i need to know what medication is approved by obamacare for birth control,CoverageBirthControl,1
i'm calling to see if a birth control option is covered,CoverageBirthControl,1
looking for the coverage of a obamacare on preventative pregnancy birth control,CoverageBirthControl,1
need to know what birth control covered,CoverageBirthControl,1
obamacare paying for birth control,CoverageBirthControl,1
ordering a year's worth of prescription birth control,CoverageBirthControl,1
question about birth control for several months,CoverageBirthControl,1
trying to find out what coverage under our plan is for birth control for my wife,CoverageBirthControl,1
what kind of birth control the insurance covers,CoverageBirthControl,1
wife's birth control,CoverageBirthControl,1
birth control copay,CoverageBirthControl,1
i need to find out the price for a certain birth control based on this yeah,CoverageBirthControl,1
looking to see if paragard is covered and what is covered,CoverageBirthControl,1
i have a question if natural family planning would be covered,CoverageBirthControl,1
reproductive health,CoverageBirthControl,1
benefits for hearing aids,CoverageHearingAids,1
calling about do you cover hearing aid,CoverageHearingAids,1
calling to find out if insurance covers hearing aids,CoverageHearingAids,1
checking on hearing aid,CoverageHearingAids,1
coverage for hearing aids,CoverageHearingAids,1
i have a question on whether hearing aids are covered,CoverageHearingAids,1
coverage on hearing aids,CoverageHearingAids,1
eligibility for a hearing aid,CoverageHearingAids,1
eligibility for hearing aids,CoverageHearingAids,1
eligibility trying to find out why i was refused a hearing aid,CoverageHearingAids,1
for coverage for hearing aids,CoverageHearingAids,1
hearing aid,CoverageHearingAids,1
hearing aid coverage,CoverageHearingAids,1
hearing aids,CoverageHearingAids,1
hearing aids coverage,CoverageHearingAids,1
hearing aids deductible,CoverageHearingAids,1
i wanna call about hearing aids,CoverageHearingAids,1
i wanting to see i'm covered to get a hearing aid,CoverageHearingAids,1
i'm calling about hearing aid testing,CoverageHearingAids,1
i'm calling about my bill on my hearing aids,CoverageHearingAids,1
i'm calling to find out if hearing aids are covered,CoverageHearingAids,1
medical coverage for hearing aid,CoverageHearingAids,1
medical coverage for hearing aids,CoverageHearingAids,1
medical coverage hearing aides <spelling mistake>,CoverageHearingAids,1
medical coverage on hearing aids,CoverageHearingAids,1
need of a hearing aid,CoverageHearingAids,1
the hearing aid,CoverageHearingAids,1
total amount for hearing aids,CoverageHearingAids,1
trying to find out coverage on hearing aids,CoverageHearingAids,1
covered services home health care,CoverageHomeHealthCare,1
home health,CoverageHomeHealthCare,1
home health coverage,CoverageHomeHealthCare,1
home health delivery,CoverageHomeHealthCare,1
home health care,CoverageHomeHealthCare,1
home health care services,CoverageHomeHealthCare,1
home care,CoverageHomeHealthCare,1
copay for home health care,CoverageHomeHealthCare,1
i need to see the fine print of my coverage for home health care,CoverageHomeHealthCare,1
home care and hospital visit,CoverageHomeHealthCare,1
to see if a centrus is covered,CoverageHomeHealthCare,1
i need to find home health in my area,CoverageHomeHealthCare,1
non custodial home health care,CoverageHomeHealthCare,1
i need help on what services i can get for home care,CoverageHomeHealthCare,1
i'm calling about qualifying for a nurse a private care nurse,CoverageHomeHealthCare,1
nursing care,CoverageHomeHealthCare,1
private duty nursing,CoverageHomeHealthCare,1
home nursing,CoverageHomeHealthCare,1
in home nursing care,CoverageHomeHealthCare,1
home health providers,CoverageHomeHealthCare,1
providers for home health care,CoverageHomeHealthCare,1
infertility benefits,CoverageInfertility,1
infertility,CoverageInfertility,1
infertility coverage,CoverageInfertility,1
fertility,CoverageInfertility,1
fertility treatment,CoverageInfertility,1
checking infertility coverage,CoverageInfertility,1
coverage for fertility treatment,CoverageInfertility,1
coverage for infertility treatments through the primary medical,CoverageInfertility,1
how much you cover on fertility,CoverageInfertility,1
i have a question on fertility treatments,CoverageInfertility,1
new fertility treatment,CoverageInfertility,1
infertility services,CoverageInfertility,1
appointment for mammogram,CoverageMammogram,1
availability for mammogram,CoverageMammogram,1
checking if mammogram is covered yearly,CoverageMammogram,1
checking on coverage for mammogram,CoverageMammogram,1
copayment for mammogram,CoverageMammogram,1
coverage for mammogram,CoverageMammogram,1
coverage for my recent mammogram,CoverageMammogram,1
diagnostic mammogram,CoverageMammogram,1
digital mammogram coverage,CoverageMammogram,1
eligibility for mammogram,CoverageMammogram,1
eligibility for mammogram and ultrasound,CoverageMammogram,1
had a mammogram they need an ultrasound i wanna be sure i'm covered,CoverageMammogram,1
have a question on mammogram,CoverageMammogram,1
having a mammogram,CoverageMammogram,1
i have a question about mammograms,CoverageMammogram,1
i have a question about the new breast three d instead of the two d mammogram,CoverageMammogram,1
i have a question on covered services and where i can go for a mammogram,CoverageMammogram,1
i have a question on on mammograms,CoverageMammogram,1
i need the preventative codes for a mammogram and ultrasound,CoverageMammogram,1
i need to find out if i'll be covered for a mammogram,CoverageMammogram,1
i want i want to find out if my mammogram will be covered,CoverageMammogram,1
i would like to know if i'm covered for diagnostic mammogram,CoverageMammogram,1
is a mammogram covered annually,CoverageMammogram,1
mammogram,CoverageMammogram,1
mammogram and colonoscopy in network,CoverageMammogram,1
mammogram coverage,CoverageMammogram,1
mammogram medical coverage,CoverageMammogram,1
mammograms,CoverageMammogram,1
mammograms and dexa scans,CoverageMammogram,1
medical coverage for mammogram,CoverageMammogram,1
medical coverage regarding a mammogram,CoverageMammogram,1
my mammogram,CoverageMammogram,1
need to check on a mammogram,CoverageMammogram,1
question on covered mammogram services,CoverageMammogram,1
question on covered services was billed for a mammogram,CoverageMammogram,1
to see if i'm eligible for a mammogram,CoverageMammogram,1
verifying mammogram,CoverageMammogram,1
what is the deductible for a mammogram,CoverageMammogram,1
checking the copayment for a mammography,CoverageMammogram,1
i wanna know prices on what you will cover me on when i have my breast exams done,CoverageMammogram,1
i have a question about mammography,CoverageMammogram,1
is my service cover child birth insurance,CoverageMaternity,1
lactation consultant,CoverageMaternity,1
cost of having a baby,CoverageMaternity,1
details on maternity coverage,CoverageMaternity,1
questions about maternity coverage,CoverageMaternity,1
add maternity coverage,CoverageMaternity,1
am i eligible for birthing classes,CoverageMaternity,1
and about the pregnant and the c section prices and the coverage,CoverageMaternity,1
birthing class,CoverageMaternity,1
c section coverage,CoverageMaternity,1
checking on maternity leave,CoverageMaternity,1
cost for maternity,CoverageMaternity,1
coverage for prenatal testing,CoverageMaternity,1
eligibility for for maternity,CoverageMaternity,1
eligibility for midwifery services,CoverageMaternity,1
expectant mother care,CoverageMaternity,1
fertility coverage,CoverageInfertility,1
global midwifery,CoverageMaternity,1
i am pregnant and wanted to notify you guys,CoverageMaternity,1
i have a question about pregnancy,CoverageMaternity,1
i have a question on maternity,CoverageMaternity,1
i just found out that i'm pregnant and i need to get a hold of the doctor that is under the insurance,CoverageMaternity,1
i need a number for the pregnancy program,CoverageMaternity,1
i need a question about having a baby and what's the process,CoverageMaternity,1
i need the prenatal care items like after maternity,CoverageMaternity,1
i want to know about pregnancy cover,CoverageMaternity,1
i was wondering if maternity classes were covered under my medical,CoverageMaternity,1
i'm pregnant,CoverageMaternity,1
i'm trying to find out how much i owe from maternity leave,CoverageMaternity,1
inquiring about maternity benefits,CoverageMaternity,1
is the maternity twenty one blood test covered under my plan,CoverageMaternity,1
is there maternity coverage,CoverageMaternity,1
i've a question about pregnancy,CoverageMaternity,1
maternity,CoverageMaternity,1
maternity admission,CoverageMaternity,1
maternity benefit,CoverageMaternity,1
maternity benefits i have a question,CoverageMaternity,1
maternity care,CoverageMaternity,1
maternity coverage,CoverageMaternity,1
maternity eligibility,CoverageMaternity,1
maternity leave,CoverageMaternity,1
maternity leave need care_centrix number,CoverageMaternity,1
maternity plan,CoverageMaternity,1
maternity program,CoverageMaternity,1
maternity services,CoverageMaternity,1
maternity specialist,CoverageMaternity,1
maternity stay,CoverageMaternity,1
maternity support program,CoverageMaternity,1
maternity treatment cost,CoverageMaternity,1
medical coverage for pregnancy,CoverageMaternity,1
medical coverage prenatal care,CoverageMaternity,1
midwife,CoverageMaternity,1
my maternity plan,CoverageMaternity,1
need to report a pregnancy,CoverageMaternity,1
new pregnancy,CoverageMaternity,1
notification of pregnancy,CoverageMaternity,1
on getting information about your pregnancy health plan,CoverageMaternity,1
oral health maternity benefits,CoverageMaternity,1
ordering breast feeding supplies,CoverageBreastPump,1
paternal leave,CoverageMaternity,1
pregnancy,CoverageMaternity,1
pregnancy and postpartum,CoverageMaternity,1
pregnancy benefits,CoverageMaternity,1
pregnancy coverage,CoverageMaternity,1
pregnancy covers,CoverageMaternity,1
pregnancy eligibility,CoverageMaternity,1
pregnancy medical coverage,CoverageMaternity,1
pregnancy pregnancy,CoverageMaternity,1
pregnancy program,CoverageMaternity,1
pregnancy question,CoverageMaternity,1
pregnancy test,CoverageMaternity,1
pregnancy tool kit,CoverageMaternity,1
pregnant,CoverageMaternity,1
prenatal,CoverageMaternity,1
prenatal care,CoverageMaternity,1
prenatal care coverage,CoverageMaternity,1
prenatal coverage,CoverageMaternity,1
prenatal program,CoverageMaternity,1
prenatal screening program,CoverageMaternity,1
question about maternity services,CoverageMaternity,1
question on maternity care,CoverageMaternity,1
questions about maternity leave,CoverageMaternity,1
questions about pregnancy coverage,CoverageMaternity,1
questions about question about services and prenatal care,CoverageMaternity,1
sign_up for maternity matters,CoverageMaternity,1
statement of coverage for prenatal care,CoverageMaternity,1
i have a question about child birth,CoverageMaternity,1
covered pharmacy services,CoveragePrescription,1
covered services pharmacy,CoveragePrescription,1
i have a question on covered services for cimbalta,CoveragePrescription,1
prescription coverage,CoveragePrescription,1
pharmacy coverage,CoveragePrescription,1
prescription cost,CoveragePrescription,1
pharmacy benefits,CoveragePrescription,1
prescription benefits,CoveragePrescription,1
drug coverage,CoveragePrescription,1
prescription plan,CoveragePrescription,1
prescription drug coverage,CoveragePrescription,1
medication coverage,CoveragePrescription,1
pharmacy benefit,CoveragePrescription,1
a prescription copay,CoveragePrescription,1
checking on a pharmacy copay,CoveragePrescription,1
copay for medication,CoveragePrescription,1
copay for medicine,CoveragePrescription,1
copay for pharmacy incorrect,CoveragePrescription,1
copay for prescription,CoveragePrescription,1
copay on prescription,CoveragePrescription,1
copay on prescription plan,CoveragePrescription,1
copayment for prescription,CoveragePrescription,1
copays pharmacy,CoveragePrescription,1
cost copay of my prescription,CoveragePrescription,1
do i have a copay on viagra,CoveragePrescription,1
find out a price of a prescription my part of the copay,CoveragePrescription,1
have a question about deductibles or copays on pharmacy,CoveragePrescription,1
i have a question about prescription copay,CoveragePrescription,1
i have reached my pharmacy deductible have i reached my physician copays deductibles,CoveragePrescription,1
i need a medicine copay,CoveragePrescription,1
i need to figure out what my copayment for r_x prescriptions are,CoveragePrescription,1
i'm trying to get how much the certain medications would be on the copay,CoveragePrescription,1
pharmacy copay,CoveragePrescription,1
pharmacy copayment,CoveragePrescription,1
pharmacy prices copay,CoveragePrescription,1
prescription copay,CoveragePrescription,1
prescription copayment,CoveragePrescription,1
prescription coverage copay,CoveragePrescription,1
prescription plan copays,CoveragePrescription,1
question on prescription copay,CoveragePrescription,1
cost of of coverage or cost of drugs what is covered,CoveragePrescription,1
i need a price on pharmacy,CoveragePrescription,1
i need estimated cost for an allergy serum,CoveragePrescription,1
i've a question on the cost of pharmaceuticals,CoveragePrescription,1
cost of chantix,CoveragePrescription,1
i'm trying to see if a prescription is covered under cigna for h hyalgan h y a l g a n and also if an unloader brace for my right knee would be covered under cigna,CoveragePrescription,1
is chantix covered,CoveragePrescription,1
coverage for c_v_s,CoveragePrescription,1
do i have prescription coverage,CoveragePrescription,1
is spiriva covered,CoveragePrescription,1
med oral medical coverage copays,CoveragePrescription,1
want to know if i'm able to get more than one inhaler,CoveragePrescription,1
prescription benefit,CoveragePrescription,1
prescription eligibility,CoveragePrescription,1
prescription prescription coverage,CoveragePrescription,1
prescription price,CoveragePrescription,1
i have a question about prescription coverage,CoveragePrescription,1
pharmaceutical coverage,CoveragePrescription,1
cost of prescription,CoveragePrescription,1
prescription pricing,CoveragePrescription,1
i have a question on covered medication,CoveragePrescription,1
cost of medication,CoveragePrescription,1
pharmacy cost,CoveragePrescription,1
prescription prices,CoveragePrescription,1
drug benefits,CoveragePrescription,1
price of a prescription,CoveragePrescription,1
checking on a prescription coverage,CoveragePrescription,1
medical coverage pharmacy,CoveragePrescription,1
drug cost,CoveragePrescription,1
price of prescription,CoveragePrescription,1
coverage for prescriptions,CoveragePrescription,1
covered medications,CoveragePrescription,1
i have a question on medication coverage,CoveragePrescription,1
medical coverage prescription coverage,CoveragePrescription,1
prescription coverage question,CoveragePrescription,1
price of medication,CoveragePrescription,1
eligibility for medication,CoveragePrescription,1
a prescription coverage,CoveragePrescription,1
a question about prescription coverage,CoveragePrescription,1
a question on prescription coverage,CoveragePrescription,1
coverage on a medication,CoveragePrescription,1
coverage on a prescription,CoveragePrescription,1
coverage prescription coverage,CoveragePrescription,1
i have a question on covered services prescriptions,CoveragePrescription,1
i have a question on pharmacy coverage,CoveragePrescription,1
pharmacy prescription coverage,CoveragePrescription,1
prescription medication coverage,CoveragePrescription,1
question on covered medication,CoveragePrescription,1
cost of prescriptions,CoveragePrescription,1
medication prices,CoveragePrescription,1
medicine cost,CoveragePrescription,1
r_x information,CoveragePrescription,1
benefits for prescriptions,CoveragePrescription,1
covered services on prescriptions,CoveragePrescription,1
eligibility prescription,CoveragePrescription,1
medical prescription benefit,CoveragePrescription,1
pharmaceutical benefits,CoveragePrescription,1
prescription benefits plan,CoveragePrescription,1
prescription drug benefit eligibility,CoveragePrescription,1
prescription drug eligibility,CoveragePrescription,1
r_x benefits,CoveragePrescription,1
uncovered services like prescription drugs,CoveragePrescription,1
i want to know whether a particular drug is covered or not,CoveragePrescription,1
a coverage for prescription,CoveragePrescription,1
a question on covered prescription,CoveragePrescription,1
check coverage for prescription,CoveragePrescription,1
i need to speak to someone about approving a medication,CoveragePrescription,1
step therapy,CoveragePrescription,1
step therapy program,CoveragePrescription,1
apothecary,CoveragePrescription,1
deductibles on pharmacy,CoveragePrescription,1
eligibility pharmacy,CoveragePrescription,1
verification pharmacy,CoveragePrescription,1
verify pharmacy coverage,CoveragePrescription,1
verifying pharmacy,CoveragePrescription,1
checking on drug coverage,CoveragePrescription,1
checking on pharmaceutical coverage,CoveragePrescription,1
cigna cover drug,CoveragePrescription,1
coverage for a prescription,CoveragePrescription,1
coverage for migraine medicine,CoveragePrescription,1
coverage for pharmacy,CoveragePrescription,1
coverage on drug information,CoveragePrescription,1
covered medication prescription,CoveragePrescription,1
covered medicine,CoveragePrescription,1
i have a question on coverage for a script from the doctor,CoveragePrescription,1
i have a question on covered services for diflucan,CoveragePrescription,1
i need to get coverage on some medications how much cigna will cover,CoveragePrescription,1
i need to know if a prescription is covered by cigna,CoveragePrescription,1
i need to know if anxiety medication is covered under my plan,CoveragePrescription,1
i want to know if tantra chantix quit smoking prescription is covered and how much,CoveragePrescription,1
i want to know what kind of cholesterol medicine is covered,CoveragePrescription,1
i'd like to know how much is covered on a certain drug,CoveragePrescription,1
if vivance and adderall is covered and if it would be less expensive for the home pharmacy,CoveragePrescription,1
i'm exploring two new drugs for my stroke issue i'd like to know if they are covered under your plan,CoveragePrescription,1
insurance a medication,CoveragePrescription,1
insurance coverage on a medication pharmacy,CoveragePrescription,1
insurance coverage pharmacy,CoveragePrescription,1
is my medication covered,CoveragePrescription,1
is my medicine covered,CoveragePrescription,1
medical coverage activating my drug plan,CoveragePrescription,1
medical coverage for pharmacy,CoveragePrescription,1
question whether two certain meds are are covered by cigna,CoveragePrescription,1
r_x coverage,CoveragePrescription,1
script coverage,CoveragePrescription,1
smoking cessation drug covered under your pharmacy plan,CoveragePrescription,1
a question about drug prices,CoveragePrescription,1
charges from tel_drug,CoveragePrescription,1
checking on a price for medicine,CoveragePrescription,1
checking on prescription amount,CoveragePrescription,1
checking on prescription cost,CoveragePrescription,1
checking on prescription prices,CoveragePrescription,1
i would like to check on the price of reclast r e c l a s t under my policy,CoveragePrescription,1
out of pocket for pharmacy,CoveragePrescription,1
pharmacy item cost,CoveragePrescription,1
pharmacy medicine prices,CoveragePrescription,1
pharmacy out of pocket,CoveragePrescription,1
deduction for medicine,CoveragePrescription,1
how much my prescription for chantix,CoveragePrescription,1
two new drugs to control my stoke issue,CoveragePrescription,1
